{
  "type": "minecraft:crafting_shaped",
  "pattern": [
    "###",
    "###",
    "###"
  ],
  "key": {
    "#": {
      "item": "pagamos:amethyst"
    }
  },
  "result": {
    "item": "pagamos:amethyst_block"
  }
}