{
  "type": "minecraft:crafting_shapeless",
  "ingredients": [
    {
      "item": "minecraft:lapis_block"
    },
    {
      "item": "minecraft:flint"
    }
  ],
  "result": {
    "item": "pagamos:flint_and_lapis"
  }
}